{
  "project_info": {
    "project_number": "62312862199",
    "firebase_url": "https://smarthomecheckout.firebaseio.com",
    "project_id": "smarthomecheckout",
    "storage_bucket": "smarthomecheckout.appspot.com"
  },
  "client": [
    {
      "client_info": {
        "mobilesdk_app_id": "1:62312862199:android:990a80b268a70e1a0b9ef2",
        "android_client_info": {
          "package_name": "com.lavsystems.smarthomecheckout"
        }
      },
      "oauth_client": [
        {
          "client_id": "62312862199-f6kak2650a91e47klv6difvkkdm7o075.apps.googleusercontent.com",
          "client_type": 3
        }
      ],
      "api_key": [
        {
          "current_key": "AIzaSyBybOPq7SkfbWtKhP4JRXalCyzASVa7gFo"
        }
      ],
      "services": {
        "appinvite_service": {
          "other_platform_oauth_client": [
            {
              "client_id": "62312862199-f6kak2650a91e47klv6difvkkdm7o075.apps.googleusercontent.com",
              "client_type": 3
            }
          ]
        }
      }
    }
  ],
  "configuration_version": "1"
}